nubus_arbiter_tb.vcd
$date
	Sat Feb  1 22:45:46 2020
$end
$version
	Icarus Verilog
$end
$timescale
	1ps
$end
$scope module nubus_arbiter_tb $end
$var wire 4 ! arb1_ni [3:0] $end
$var wire 4 " arb2_ni [3:0] $end
$var wire 4 # id2 [3:0] $end
$var wire 4 $ id1 [3:0] $end
$var wire 1 % grant2 $end
$var wire 1 & grant1 $end
$var wire 1 ' enable2 $end
$var wire 1 ( enable1 $end
$var wire 4 ) arb2_no [3:0] $end
$var wire 4 * arb1_no [3:0] $end
$var reg 1 + fault $end
$var reg 5 , rid1 [4:0] $end
$var reg 5 - rid2 [4:0] $end
$scope module UA1 $end
$var wire 1 . arb0 $end
$var wire 1 / arb0oe_n $end
$var wire 1 0 arb1 $end
$var wire 1 1 arb1oe_n $end
$var wire 1 2 arb2 $end
$var wire 1 3 arb2oe_n $end
$var wire 1 4 arb3 $end
$var wire 4 5 arb_ni [3:0] $end
$var wire 1 ( enable_i $end
$var wire 1 6 grant_no $end
$var wire 1 & grant_o $end
$var wire 4 7 id_ni [3:0] $end
$var wire 4 8 arb_no [3:0] $end
$upscope $end
$scope module UA2 $end
$var wire 1 9 arb0 $end
$var wire 1 : arb0oe_n $end
$var wire 1 ; arb1 $end
$var wire 1 < arb1oe_n $end
$var wire 1 = arb2 $end
$var wire 1 > arb2oe_n $end
$var wire 1 ? arb3 $end
$var wire 4 @ arb_ni [3:0] $end
$var wire 1 ' enable_i $end
$var wire 1 A grant_no $end
$var wire 1 % grant_o $end
$var wire 4 B id_ni [3:0] $end
$var wire 4 C arb_no [3:0] $end
$upscope $end
$upscope $end
$enddefinitions $end
#0
$dumpvars
b1 C
b1 B
1A
b0 @
1?
0>
1=
0<
1;
0:
09
b0 8
b0 7
06
b0 5
14
03
12
01
10
0/
1.
b1 -
b0 ,
0+
b0 *
b1 )
1(
1'
1&
0%
b0 $
b1 #
b0 "
b0 !
$end
#20000
0%
b11 )
b11 C
0;
1:
09
1A
b10 #
b10 B
b10 -
#40000
b11 #
b11 B
b11 -
#60000
09
0%
b111 )
b111 C
1A
0=
1<
0;
1:
b100 #
b100 B
b100 -
#80000
b101 #
b101 B
b101 -
#100000
b110 #
b110 B
b110 -
#120000
b111 #
b111 B
b111 -
#140000
b1111 )
b1111 C
0?
0=
1>
b1000 #
b1000 B
b1000 -
#160000
b1001 #
b1001 B
b1001 -
#180000
b1010 #
b1010 B
b1010 -
#200000
b1011 #
b1011 B
b1011 -
#220000
b1100 #
b1100 B
b1100 -
#240000
b1101 #
b1101 B
b1101 -
#260000
b1110 #
b1110 B
b1110 -
#280000
0A
0:
06
0<
b1111 "
b1111 @
b1111 !
b1111 5
0>
b1111 *
b1111 8
02
00
0.
04
0&
b1 $
b1 7
b1 #
b1 B
0(
0'
b1 ,
b1 -
#300000
06
1A
1:
09
b1 "
b1 @
b1 !
b1 5
b1 *
b1 8
12
10
b11 )
b11 C
1=
0;
b10 #
b10 B
14
1&
1?
0%
1(
1'
b10 -
#320000
b11 #
b11 B
b11 -
#340000
1&
06
b1 "
b1 @
b1 !
b1 5
09
0%
b111 )
b111 C
1A
0=
1<
0;
1:
b100 #
b100 B
b100 -
#360000
b101 #
b101 B
b101 -
#380000
b110 #
b110 B
b110 -
#400000
b111 #
b111 B
b111 -
#420000
b1111 )
b1111 C
0?
0=
1>
b1000 #
b1000 B
b1000 -
#440000
b1001 #
b1001 B
b1001 -
#460000
b1010 #
b1010 B
b1010 -
#480000
b1011 #
b1011 B
b1011 -
#500000
b1100 #
b1100 B
b1100 -
#520000
b1101 #
b1101 B
b1101 -
#540000
b1110 #
b1110 B
b1110 -
#560000
1%
0&
1;
b1 "
b1 @
b1 !
b1 5
1=
0A
b11 *
b11 8
16
b1 )
b1 C
0:
00
1/
0.
1?
0<
0>
b10 $
b10 7
b1 #
b1 B
b10 ,
b1 -
#580000
06
0/
0A
0:
b1111 "
b1111 @
b1111 !
b1111 5
b1111 *
b1111 8
02
b1111 )
b1111 C
0=
0;
b10 #
b10 B
04
0?
0%
0(
0'
b10 -
#600000
1A
b10 "
b10 @
b10 !
b10 5
b10 *
b10 8
12
1.
b11 )
b11 C
1=
09
b11 #
b11 B
14
1&
1?
0%
1(
1'
b11 -
#620000
b10 *
b10 8
1.
1&
06
0/
b10 "
b10 @
b10 !
b10 5
0%
1:
b111 )
b111 C
0=
1<
0;
09
1A
b100 #
b100 B
b100 -
#640000
b101 #
b101 B
b101 -
#660000
b110 #
b110 B
b110 -
#680000
b111 #
b111 B
b111 -
#700000
b1111 )
b1111 C
0?
0=
1>
b1000 #
b1000 B
b1000 -
#720000
b1001 #
b1001 B
b1001 -
#740000
b1010 #
b1010 B
b1010 -
#760000
b1011 #
b1011 B
b1011 -
#780000
b1100 #
b1100 B
b1100 -
#800000
b1101 #
b1101 B
b1101 -
#820000
b1110 #
b1110 B
b1110 -
#840000
1%
1/
0A
1;
0&
b1 "
b1 @
b1 !
b1 5
1=
b11 *
b11 8
b1 )
b1 C
0:
0.
16
1?
0<
0>
b11 $
b11 7
b1 #
b1 B
b11 ,
b1 -
#860000
0&
16
0/
1%
b10 "
b10 @
b10 !
b10 5
b10 )
b10 C
0A
0;
0:
19
b10 #
b10 B
b10 -
#880000
06
0A
b1111 "
b1111 @
b1111 !
b1111 5
b1111 *
b1111 8
02
b1111 )
b1111 C
0=
09
b11 #
b11 B
04
0?
0%
0(
0'
b11 -
#900000
0/
06
1A
1:
1<
0;
09
b11 "
b11 @
b11 !
b11 5
b11 *
b11 8
12
b111 )
b111 C
0=
b100 #
b100 B
14
1&
1?
0%
1(
1'
b100 -
#920000
b101 #
b101 B
b101 -
#940000
b110 #
b110 B
b110 -
#960000
b111 #
b111 B
b111 -
#980000
b1111 )
b1111 C
0?
0=
1>
b1000 #
b1000 B
b1000 -
#1000000
b1001 #
b1001 B
b1001 -
#1020000
b1010 #
b1010 B
b1010 -
#1040000
b1011 #
b1011 B
b1011 -
#1060000
b1100 #
b1100 B
b1100 -
#1080000
b1101 #
b1101 B
b1101 -
#1100000
b1110 #
b1110 B
b1110 -
#1120000
0&
1%
1;
16
b1 "
b1 @
b1 !
b1 5
1=
0A
1/
b111 *
b111 8
b1 )
b1 C
0:
02
11
00
0.
1?
0<
0>
b100 $
b100 7
b1 #
b1 B
b100 ,
b1 -
#1140000
1%
b10 "
b10 @
b10 !
b10 5
b10 )
b10 C
0A
0;
0:
19
b10 #
b10 B
b10 -
#1160000
b11 "
b11 @
b11 !
b11 5
1%
b11 )
b11 C
09
0A
b11 #
b11 B
b11 -
#1180000
06
0/
01
0A
0:
0<
b1111 "
b1111 @
b1111 !
b1111 5
b1111 *
b1111 8
b1111 )
b1111 C
0=
b100 #
b100 B
04
0?
0%
0(
0'
b100 -
#1200000
1A
b100 "
b100 @
b100 !
b100 5
b100 *
b100 8
10
1.
b101 )
b101 C
1;
09
b101 #
b101 B
14
1&
1?
0%
1(
1'
b101 -
#1220000
0%
b111 )
b111 C
0;
1:
09
1A
b110 #
b110 B
b110 -
#1240000
b111 #
b111 B
b111 -
#1260000
b100 *
b100 8
1.
1&
10
06
0/
01
09
0%
b100 "
b100 @
b100 !
b100 5
b1111 )
b1111 C
1A
0?
0=
1<
0;
1:
1>
b1000 #
b1000 B
b1000 -
#1280000
b1001 #
b1001 B
b1001 -
#1300000
b1010 #
b1010 B
b1010 -
#1320000
b1011 #
b1011 B
b1011 -
#1340000
b1100 #
b1100 B
b1100 -
#1360000
b1101 #
b1101 B
b1101 -
#1380000
b1110 #
b1110 B
b1110 -
#1400000
00
1/
1%
11
0A
1;
0&
b1 "
b1 @
b1 !
b1 5
1=
b111 *
b111 8
b1 )
b1 C
0:
0.
16
1?
0<
0>
b101 $
b101 7
b1 #
b1 B
b101 ,
b1 -
#1420000
1%
b10 "
b10 @
b10 !
b10 5
b10 )
b10 C
0A
0;
0:
19
b10 #
b10 B
b10 -
#1440000
b11 "
b11 @
b11 !
b11 5
1%
b11 )
b11 C
09
0A
b11 #
b11 B
b11 -
#1460000
0&
b101 *
b101 8
16
10
0/
01
1%
b100 "
b100 @
b100 !
b100 5
0A
0:
b100 )
b100 C
0=
0<
1;
19
b100 #
b100 B
b100 -
#1480000
06
0A
b1111 "
b1111 @
b1111 !
b1111 5
b1111 *
b1111 8
00
b1111 )
b1111 C
0;
09
b101 #
b101 B
04
0?
0%
0(
0'
b101 -
#1500000
06
1A
1:
09
b101 "
b101 @
b101 !
b101 5
b101 *
b101 8
10
b111 )
b111 C
0;
b110 #
b110 B
14
1&
1?
0%
1(
1'
b110 -
#1520000
b111 #
b111 B
b111 -
#1540000
b101 *
b101 8
1&
10
06
0/
01
09
0%
b101 "
b101 @
b101 !
b101 5
b1111 )
b1111 C
1A
0?
0=
1<
0;
1:
1>
b1000 #
b1000 B
b1000 -
#1560000
b1001 #
b1001 B
b1001 -
#1580000
b1010 #
b1010 B
b1010 -
#1600000
b1011 #
b1011 B
b1011 -
#1620000
b1100 #
b1100 B
b1100 -
#1640000
b1101 #
b1101 B
b1101 -
#1660000
b1110 #
b1110 B
b1110 -
#1680000
11
1%
0&
1;
b1 "
b1 @
b1 !
b1 5
1=
0A
b111 *
b111 8
16
b1 )
b1 C
0:
00
1/
0.
1?
0<
0>
b110 $
b110 7
b1 #
b1 B
b110 ,
b1 -
#1700000
1%
b10 "
b10 @
b10 !
b10 5
b10 )
b10 C
0A
0;
0:
19
b10 #
b10 B
b10 -
#1720000
b11 "
b11 @
b11 !
b11 5
1%
b11 )
b11 C
09
0A
b11 #
b11 B
b11 -
#1740000
b111 *
b111 8
0.
0&
16
1/
01
1%
b100 "
b100 @
b100 !
b100 5
0A
0:
b100 )
b100 C
0=
0<
1;
19
b100 #
b100 B
b100 -
#1760000
b101 "
b101 @
b101 !
b101 5
1%
b101 )
b101 C
09
0A
b101 #
b101 B
b101 -
#1780000
06
0/
0A
0:
b1111 "
b1111 @
b1111 !
b1111 5
b1111 *
b1111 8
b1111 )
b1111 C
0;
b110 #
b110 B
04
0?
0%
0(
0'
b110 -
#1800000
1A
b110 "
b110 @
b110 !
b110 5
b110 *
b110 8
1.
b111 )
b111 C
09
b111 #
b111 B
14
1&
1?
0%
1(
1'
b111 -
#1820000
b110 *
b110 8
1.
1&
06
01
0/
b110 "
b110 @
b110 !
b110 5
0%
1:
b1111 )
b1111 C
0?
0=
1<
0;
09
1A
1>
b1000 #
b1000 B
b1000 -
#1840000
b1001 #
b1001 B
b1001 -
#1860000
b1010 #
b1010 B
b1010 -
#1880000
b1011 #
b1011 B
b1011 -
#1900000
b1100 #
b1100 B
b1100 -
#1920000
b1101 #
b1101 B
b1101 -
#1940000
b1110 #
b1110 B
b1110 -
#1960000
1%
11
1/
0A
1;
0&
b1 "
b1 @
b1 !
b1 5
1=
b111 *
b111 8
b1 )
b1 C
0:
0.
16
1?
0<
0>
b111 $
b111 7
b1 #
b1 B
b111 ,
b1 -
#1980000
1%
b10 "
b10 @
b10 !
b10 5
b10 )
b10 C
0A
0;
0:
19
b10 #
b10 B
b10 -
#2000000
b11 "
b11 @
b11 !
b11 5
1%
b11 )
b11 C
09
0A
b11 #
b11 B
b11 -
#2020000
0&
16
1/
01
1%
b100 "
b100 @
b100 !
b100 5
0A
0:
b100 )
b100 C
0=
0<
1;
19
b100 #
b100 B
b100 -
#2040000
b101 "
b101 @
b101 !
b101 5
1%
b101 )
b101 C
09
0A
b101 #
b101 B
b101 -
#2060000
0&
16
0/
1%
b110 "
b110 @
b110 !
b110 5
b110 )
b110 C
0A
0;
0:
19
b110 #
b110 B
b110 -
#2080000
06
0A
b1111 "
b1111 @
b1111 !
b1111 5
b1111 *
b1111 8
b1111 )
b1111 C
09
b111 #
b111 B
04
0?
0%
0(
0'
b111 -
#2100000
01
0/
06
1A
1:
1<
1>
0=
0;
09
b111 "
b111 @
b111 !
b111 5
b111 *
b111 8
b1111 )
b1111 C
b1000 #
b1000 B
14
1&
0?
0%
1(
1'
b1000 -
#2120000
b1001 #
b1001 B
b1001 -
#2140000
b1010 #
b1010 B
b1010 -
#2160000
b1011 #
b1011 B
b1011 -
#2180000
b1100 #
b1100 B
b1100 -
#2200000
b1101 #
b1101 B
b1101 -
#2220000
b1110 #
b1110 B
b1110 -
#2240000
0&
1%
1;
16
b1 "
b1 @
b1 !
b1 5
1=
0A
1/
b1111 *
b1111 8
b1 )
b1 C
0:
04
02
11
00
0.
1?
0<
13
0>
b1000 $
b1000 7
b1 #
b1 B
b1000 ,
b1 -
#2260000
1%
b10 "
b10 @
b10 !
b10 5
b10 )
b10 C
0A
0;
0:
19
b10 #
b10 B
b10 -
#2280000
b11 "
b11 @
b11 !
b11 5
1%
b11 )
b11 C
09
0A
b11 #
b11 B
b11 -
#2300000
1%
b100 "
b100 @
b100 !
b100 5
0A
0:
b100 )
b100 C
0=
0<
1;
19
b100 #
b100 B
b100 -
#2320000
b101 "
b101 @
b101 !
b101 5
1%
b101 )
b101 C
09
0A
b101 #
b101 B
b101 -
#2340000
1%
b110 "
b110 @
b110 !
b110 5
b110 )
b110 C
0A
0;
0:
19
b110 #
b110 B
b110 -
#2360000
b111 "
b111 @
b111 !
b111 5
1%
b111 )
b111 C
09
0A
b111 #
b111 B
b111 -
#2380000
06
0/
01
0A
03
0:
0<
0>
b1111 "
b1111 @
b1111 !
b1111 5
b1111 )
b1111 C
b1000 #
b1000 B
0?
0%
0(
0'
b1000 -
#2400000
1A
b1000 "
b1000 @
b1000 !
b1000 5
b1000 *
b1000 8
b1001 )
b1001 C
12
10
1.
1=
1;
09
b1001 #
b1001 B
1&
0%
1(
1'
b1001 -
#2420000
0%
b1011 )
b1011 C
0;
1:
09
1A
b1010 #
b1010 B
b1010 -
#2440000
b1011 #
b1011 B
b1011 -
#2460000
09
0%
b1111 )
b1111 C
1A
0=
1<
0;
1:
b1100 #
b1100 B
b1100 -
#2480000
b1101 #
b1101 B
b1101 -
#2500000
b1110 #
b1110 B
b1110 -
#2520000
00
1%
02
1/
0A
11
13
1;
0&
b1 "
b1 @
b1 !
b1 5
b1111 *
b1111 8
b1 )
b1 C
0:
0.
16
1?
1=
0<
b1001 $
b1001 7
b1 #
b1 B
b1001 ,
b1 -
#2540000
1%
b10 "
b10 @
b10 !
b10 5
b10 )
b10 C
0A
0;
0:
19
b10 #
b10 B
b10 -
#2560000
b11 "
b11 @
b11 !
b11 5
1%
b11 )
b11 C
09
0A
b11 #
b11 B
b11 -
#2580000
1%
b100 "
b100 @
b100 !
b100 5
0A
0:
b100 )
b100 C
0=
0<
1;
19
b100 #
b100 B
b100 -
#2600000
b101 "
b101 @
b101 !
b101 5
1%
b101 )
b101 C
09
0A
b101 #
b101 B
b101 -
#2620000
1%
b110 "
b110 @
b110 !
b110 5
b110 )
b110 C
0A
0;
0:
19
b110 #
b110 B
b110 -
#2640000
b111 "
b111 @
b111 !
b111 5
1%
b111 )
b111 C
09
0A
b111 #
b111 B
b111 -
#2660000
0&
16
b1001 *
b1001 8
10
12
0/
01
03
1%
b1000 "
b1000 @
b1000 !
b1000 5
0A
0:
b1000 )
b1000 C
0?
1=
0<
1;
19
0>
b1000 #
b1000 B
b1000 -
#2680000
06
0A
b1111 "
b1111 @
b1111 !
b1111 5
b1111 *
b1111 8
b1111 )
b1111 C
02
00
0=
0;
09
b1001 #
b1001 B
0%
0(
0'
b1001 -
#2700000
06
1A
1:
09
b1001 "
b1001 @
b1001 !
b1001 5
b1001 *
b1001 8
b1011 )
b1011 C
12
10
1=
0;
b1010 #
b1010 B
1&
0%
1(
1'
b1010 -
#2720000
b1011 #
b1011 B
b1011 -
#2740000
1&
06
b1001 "
b1001 @
b1001 !
b1001 5
09
0%
b1111 )
b1111 C
1A
0=
1<
0;
1:
b1100 #
b1100 B
b1100 -
#2760000
b1101 #
b1101 B
b1101 -
#2780000
b1110 #
b1110 B
b1110 -
#2800000
02
11
13
1%
0&
1;
b1 "
b1 @
b1 !
b1 5
0A
b1111 *
b1111 8
16
b1 )
b1 C
0:
00
1/
0.
1?
1=
0<
b1010 $
b1010 7
b1 #
b1 B
b1010 ,
b1 -
#2820000
1%
b10 "
b10 @
b10 !
b10 5
b10 )
b10 C
0A
0;
0:
19
b10 #
b10 B
b10 -
#2840000
b11 "
b11 @
b11 !
b11 5
1%
b11 )
b11 C
09
0A
b11 #
b11 B
b11 -
#2860000
1%
b100 "
b100 @
b100 !
b100 5
0A
0:
b100 )
b100 C
0=
0<
1;
19
b100 #
b100 B
b100 -
#2880000
b101 "
b101 @
b101 !
b101 5
1%
b101 )
b101 C
09
0A
b101 #
b101 B
b101 -
#2900000
1%
b110 "
b110 @
b110 !
b110 5
b110 )
b110 C
0A
0;
0:
19
b110 #
b110 B
b110 -
#2920000
b111 "
b111 @
b111 !
b111 5
1%
b111 )
b111 C
09
0A
b111 #
b111 B
b111 -
#2940000
0.
0&
16
b1011 *
b1011 8
1/
12
01
03
1%
b1000 "
b1000 @
b1000 !
b1000 5
0A
0:
b1000 )
b1000 C
0?
1=
0<
1;
19
0>
b1000 #
b1000 B
b1000 -
#2960000
b1001 "
b1001 @
b1001 !
b1001 5
1%
b1001 )
b1001 C
09
0A
b1001 #
b1001 B
b1001 -
#2980000
06
0/
0A
0:
b1111 "
b1111 @
b1111 !
b1111 5
b1111 *
b1111 8
b1111 )
b1111 C
02
0=
0;
b1010 #
b1010 B
0%
0(
0'
b1010 -
#3000000
1A
b1010 "
b1010 @
b1010 !
b1010 5
b1010 *
b1010 8
b1011 )
b1011 C
12
1.
1=
09
b1011 #
b1011 B
1&
0%
1(
1'
b1011 -
#3020000
b1010 *
b1010 8
1.
1&
06
0/
b1010 "
b1010 @
b1010 !
b1010 5
0%
1:
b1111 )
b1111 C
0=
1<
0;
09
1A
b1100 #
b1100 B
b1100 -
#3040000
b1101 #
b1101 B
b1101 -
#3060000
b1110 #
b1110 B
b1110 -
#3080000
1%
02
1/
0A
11
13
1;
0&
b1 "
b1 @
b1 !
b1 5
b1111 *
b1111 8
b1 )
b1 C
0:
0.
16
1?
1=
0<
b1011 $
b1011 7
b1 #
b1 B
b1011 ,
b1 -
#3100000
1%
b10 "
b10 @
b10 !
b10 5
b10 )
b10 C
0A
0;
0:
19
b10 #
b10 B
b10 -
#3120000
b11 "
b11 @
b11 !
b11 5
1%
b11 )
b11 C
09
0A
b11 #
b11 B
b11 -
#3140000
1%
b100 "
b100 @
b100 !
b100 5
0A
0:
b100 )
b100 C
0=
0<
1;
19
b100 #
b100 B
b100 -
#3160000
b101 "
b101 @
b101 !
b101 5
1%
b101 )
b101 C
09
0A
b101 #
b101 B
b101 -
#3180000
1%
b110 "
b110 @
b110 !
b110 5
b110 )
b110 C
0A
0;
0:
19
b110 #
b110 B
b110 -
#3200000
b111 "
b111 @
b111 !
b111 5
1%
b111 )
b111 C
09
0A
b111 #
b111 B
b111 -
#3220000
0&
16
b1011 *
b1011 8
1/
12
01
03
1%
b1000 "
b1000 @
b1000 !
b1000 5
0A
0:
b1000 )
b1000 C
0?
1=
0<
1;
19
0>
b1000 #
b1000 B
b1000 -
#3240000
b1001 "
b1001 @
b1001 !
b1001 5
1%
b1001 )
b1001 C
09
0A
b1001 #
b1001 B
b1001 -
#3260000
0&
16
0/
1%
b1010 "
b1010 @
b1010 !
b1010 5
b1010 )
b1010 C
0A
0;
0:
19
b1010 #
b1010 B
b1010 -
#3280000
06
0A
b1111 "
b1111 @
b1111 !
b1111 5
b1111 *
b1111 8
b1111 )
b1111 C
02
0=
09
b1011 #
b1011 B
0%
0(
0'
b1011 -
#3300000
0/
06
1A
1:
1<
0;
09
b1011 "
b1011 @
b1011 !
b1011 5
b1011 *
b1011 8
b1111 )
b1111 C
12
0=
b1100 #
b1100 B
1&
0%
1(
1'
b1100 -
#3320000
b1101 #
b1101 B
b1101 -
#3340000
b1110 #
b1110 B
b1110 -
#3360000
13
0&
1%
1;
16
b1 "
b1 @
b1 !
b1 5
0A
1/
b1111 *
b1111 8
b1 )
b1 C
0:
02
11
00
0.
1?
1=
0<
b1100 $
b1100 7
b1 #
b1 B
b1100 ,
b1 -
#3380000
1%
b10 "
b10 @
b10 !
b10 5
b10 )
b10 C
0A
0;
0:
19
b10 #
b10 B
b10 -
#3400000
b11 "
b11 @
b11 !
b11 5
1%
b11 )
b11 C
09
0A
b11 #
b11 B
b11 -
#3420000
1%
b100 "
b100 @
b100 !
b100 5
0A
0:
b100 )
b100 C
0=
0<
1;
19
b100 #
b100 B
b100 -
#3440000
b101 "
b101 @
b101 !
b101 5
1%
b101 )
b101 C
09
0A
b101 #
b101 B
b101 -
#3460000
1%
b110 "
b110 @
b110 !
b110 5
b110 )
b110 C
0A
0;
0:
19
b110 #
b110 B
b110 -
#3480000
b111 "
b111 @
b111 !
b111 5
1%
b111 )
b111 C
09
0A
b111 #
b111 B
b111 -
#3500000
b1111 *
b1111 8
0.
0&
00
16
1/
11
03
1%
b1000 "
b1000 @
b1000 !
b1000 5
0A
0:
b1000 )
b1000 C
0?
1=
0<
1;
19
0>
b1000 #
b1000 B
b1000 -
#3520000
b1001 "
b1001 @
b1001 !
b1001 5
1%
b1001 )
b1001 C
09
0A
b1001 #
b1001 B
b1001 -
#3540000
1%
b1010 "
b1010 @
b1010 !
b1010 5
b1010 )
b1010 C
0A
0;
0:
19
b1010 #
b1010 B
b1010 -
#3560000
b1011 "
b1011 @
b1011 !
b1011 5
1%
b1011 )
b1011 C
09
0A
b1011 #
b1011 B
b1011 -
#3580000
06
0/
01
0A
0:
0<
b1111 "
b1111 @
b1111 !
b1111 5
b1111 )
b1111 C
0=
b1100 #
b1100 B
0%
0(
0'
b1100 -
#3600000
1A
b1100 "
b1100 @
b1100 !
b1100 5
b1100 *
b1100 8
b1101 )
b1101 C
10
1.
1;
09
b1101 #
b1101 B
1&
0%
1(
1'
b1101 -
#3620000
0%
b1111 )
b1111 C
0;
1:
09
1A
b1110 #
b1110 B
b1110 -
#3640000
00
1%
1/
0A
11
13
0&
b1 "
b1 @
b1 !
b1 5
b1111 *
b1111 8
b1 )
b1 C
0.
16
1?
1=
1;
0:
b1101 $
b1101 7
b1 #
b1 B
b1101 ,
b1 -
#3660000
1%
b10 "
b10 @
b10 !
b10 5
b10 )
b10 C
0A
0;
0:
19
b10 #
b10 B
b10 -
#3680000
b11 "
b11 @
b11 !
b11 5
1%
b11 )
b11 C
09
0A
b11 #
b11 B
b11 -
#3700000
1%
b100 "
b100 @
b100 !
b100 5
0A
0:
b100 )
b100 C
0=
0<
1;
19
b100 #
b100 B
b100 -
#3720000
b101 "
b101 @
b101 !
b101 5
1%
b101 )
b101 C
09
0A
b101 #
b101 B
b101 -
#3740000
1%
b110 "
b110 @
b110 !
b110 5
b110 )
b110 C
0A
0;
0:
19
b110 #
b110 B
b110 -
#3760000
b111 "
b111 @
b111 !
b111 5
1%
b111 )
b111 C
09
0A
b111 #
b111 B
b111 -
#3780000
b1111 *
b1111 8
0&
00
16
1/
11
03
1%
b1000 "
b1000 @
b1000 !
b1000 5
0A
0:
b1000 )
b1000 C
0?
1=
0<
1;
19
0>
b1000 #
b1000 B
b1000 -
#3800000
b1001 "
b1001 @
b1001 !
b1001 5
1%
b1001 )
b1001 C
09
0A
b1001 #
b1001 B
b1001 -
#3820000
1%
b1010 "
b1010 @
b1010 !
b1010 5
b1010 )
b1010 C
0A
0;
0:
19
b1010 #
b1010 B
b1010 -
#3840000
b1011 "
b1011 @
b1011 !
b1011 5
1%
b1011 )
b1011 C
09
0A
b1011 #
b1011 B
b1011 -
#3860000
0&
b1101 *
b1101 8
16
10
0/
01
1%
b1100 "
b1100 @
b1100 !
b1100 5
0A
0:
b1100 )
b1100 C
0=
0<
1;
19
b1100 #
b1100 B
b1100 -
#3880000
06
0A
b1111 "
b1111 @
b1111 !
b1111 5
b1111 *
b1111 8
b1111 )
b1111 C
00
0;
09
b1101 #
b1101 B
0%
0(
0'
b1101 -
#3900000
06
1A
1:
09
b1101 "
b1101 @
b1101 !
b1101 5
b1101 *
b1101 8
b1111 )
b1111 C
10
0;
b1110 #
b1110 B
1&
0%
1(
1'
b1110 -
#3920000
11
13
0&
1%
b1 "
b1 @
b1 !
b1 5
b1111 *
b1111 8
16
b1 )
b1 C
0A
00
1/
0.
1?
1=
1;
0:
b1110 $
b1110 7
b1 #
b1 B
b1110 ,
b1 -
#3940000
1%
b10 "
b10 @
b10 !
b10 5
b10 )
b10 C
0A
0;
0:
19
b10 #
b10 B
b10 -
#3960000
b11 "
b11 @
b11 !
b11 5
1%
b11 )
b11 C
09
0A
b11 #
b11 B
b11 -
#3980000
1%
b100 "
b100 @
b100 !
b100 5
0A
0:
b100 )
b100 C
0=
0<
1;
19
b100 #
b100 B
b100 -
#4000000
b101 "
b101 @
b101 !
b101 5
1%
b101 )
b101 C
09
0A
b101 #
b101 B
b101 -
#4020000
1%
b110 "
b110 @
b110 !
b110 5
b110 )
b110 C
0A
0;
0:
19
b110 #
b110 B
b110 -
#4040000
b111 "
b111 @
b111 !
b111 5
1%
b111 )
b111 C
09
0A
b111 #
b111 B
b111 -
#4060000
b1111 *
b1111 8
0.
0&
16
1/
11
03
1%
b1000 "
b1000 @
b1000 !
b1000 5
0A
0:
b1000 )
b1000 C
0?
1=
0<
1;
19
0>
b1000 #
b1000 B
b1000 -
#4080000
b1001 "
b1001 @
b1001 !
b1001 5
1%
b1001 )
b1001 C
09
0A
b1001 #
b1001 B
b1001 -
#4100000
1%
b1010 "
b1010 @
b1010 !
b1010 5
b1010 )
b1010 C
0A
0;
0:
19
b1010 #
b1010 B
b1010 -
#4120000
b1011 "
b1011 @
b1011 !
b1011 5
1%
b1011 )
b1011 C
09
0A
b1011 #
b1011 B
b1011 -
#4140000
b1111 *
b1111 8
0.
0&
16
1/
01
1%
b1100 "
b1100 @
b1100 !
b1100 5
0A
0:
b1100 )
b1100 C
0=
0<
1;
19
b1100 #
b1100 B
b1100 -
#4160000
b1101 "
b1101 @
b1101 !
b1101 5
1%
b1101 )
b1101 C
09
0A
b1101 #
b1101 B
b1101 -
#4180000
06
0/
0A
0:
b1111 "
b1111 @
b1111 !
b1111 5
b1111 )
b1111 C
0;
b1110 #
b1110 B
0%
0(
0'
b1110 -
#4200000
b1111 $
b1111 7
b1111 #
b1111 B
b1111 ,
0(
0'
b1111 -
