nubus_vm2s_tb.vcd
$date
	Wed Feb 12 10:24:01 2020
$end
$version
	Icarus Verilog
$end
$timescale
	1ps
$end
$scope module nubus_vm2s_tb $end
$var wire 32 ! cpu_addr [31:0] $end
$var wire 1 " cpu_lock $end
$var wire 32 # cpu_rdata [31:0] $end
$var wire 1 $ cpu_ready $end
$var wire 1 % cpu_valid $end
$var wire 32 & cpu_wdata [31:0] $end
$var wire 4 ' cpu_wstrb [3:0] $end
$var wire 2 ( fsm_tmn [1:0] $end
$var wire 32 ) mem_addr [31:0] $end
$var wire 1 * mem_myexp $end
$var wire 1 + mem_myslot $end
$var wire 32 , mem_rdata [31:0] $end
$var wire 1 - mem_ready $end
$var wire 1 . mem_valid $end
$var wire 32 / mem_wdata [31:0] $end
$var wire 4 0 mem_wstrb [3:0] $end
$var wire 1 1 nub_ackn $end
$var wire 32 2 nub_adn [31:0] $end
$var wire 4 3 nub_arbn [3:0] $end
$var wire 1 4 nub_clkn $end
$var wire 4 5 nub_idn [3:0] $end
$var wire 1 6 nub_nmrqn $end
$var wire 1 7 nub_pfwn $end
$var wire 1 8 nub_resetn $end
$var wire 1 9 nub_rqstn $end
$var wire 1 : nub_spn $end
$var wire 1 ; nub_spvn $end
$var wire 1 < nub_startn $end
$var wire 1 = nub_tm0n $end
$var wire 1 > nub_tm1n $end
$var wire 1 ? nuboe $end
$var wire 1 @ mem_write $end
$var wire 1 A mem_myep $end
$var wire 32 B fsm_ad [31:0] $end
$var reg 1 C fsm_acknd $end
$var reg 32 D fsm_addr [31:0] $end
$var reg 1 E fsm_clkn $end
$var reg 32 F fsm_datard [31:0] $end
$var reg 32 G fsm_datawr [31:0] $end
$var reg 1 H fsm_resetn $end
$var reg 1 I fsm_start $end
$var reg 2 J fsm_status [1:0] $end
$var reg 2 K fsm_tm [1:0] $end
$scope function get_mask $end
$var reg 32 L get_mask [31:0] $end
$var reg 4 M tm [3:0] $end
$upscope $end
$scope module NMem $end
$var wire 32 N mem_addr [31:0] $end
$var wire 1 O mem_clk $end
$var wire 1 * mem_myexp $end
$var wire 1 + mem_myslot $end
$var wire 32 P mem_rdata_o [31:0] $end
$var wire 1 - mem_ready_o $end
$var wire 1 Q mem_reset $end
$var wire 1 . mem_valid $end
$var wire 32 R mem_wdata [31:0] $end
$var wire 4 S mem_wstrb [3:0] $end
$var wire 1 T one $end
$var wire 5 U ready [4:0] $end
$var wire 1 @ mem_write_o $end
$var wire 16 V ma [15:0] $end
$var reg 1 W ready1 $end
$var reg 1 X ready2 $end
$var reg 1 Y ready3 $end
$var integer 32 Z tmpidx [31:0] $end
$upscope $end
$scope module UNuBus $end
$var wire 1 [ busbwr $end
$var wire 32 \ cpu_addr [31:0] $end
$var wire 1 " cpu_lock $end
$var wire 32 ] cpu_rdata [31:0] $end
$var wire 1 $ cpu_ready $end
$var wire 1 % cpu_valid $end
$var wire 32 ^ cpu_wdata [31:0] $end
$var wire 4 _ cpu_wstrb [3:0] $end
$var wire 1 ` gba $end
$var wire 32 a mem_addr [31:0] $end
$var wire 1 + mem_myslot $end
$var wire 32 b mem_rdata [31:0] $end
$var wire 1 - mem_ready $end
$var wire 1 . mem_valid $end
$var wire 32 c mem_wdata [31:0] $end
$var wire 4 d mem_wstrb [3:0] $end
$var wire 1 e mst_tm0n $end
$var wire 1 f mst_tm1n $end
$var wire 1 1 nub_ackn $end
$var wire 32 g nub_adn [31:0] $end
$var wire 4 h nub_arbn [3:0] $end
$var wire 1 i nub_clk $end
$var wire 1 4 nub_clkn $end
$var wire 4 j nub_id [3:0] $end
$var wire 4 k nub_idn [3:0] $end
$var wire 1 6 nub_nmrqn $end
$var wire 1 7 nub_pfwn $end
$var wire 1 l nub_qstoe $end
$var wire 1 m nub_reset $end
$var wire 1 8 nub_resetn $end
$var wire 1 9 nub_rqstn $end
$var wire 1 : nub_spn $end
$var wire 1 ; nub_spvn $end
$var wire 1 < nub_startn $end
$var wire 1 = nub_tm0n $end
$var wire 1 > nub_tm1n $end
$var wire 32 n slv_busb [31:0] $end
$var wire 1 o slv_master $end
$var wire 1 p write $end
$var wire 1 q slv_tm1n $end
$var wire 1 r slv_tm0n $end
$var wire 1 s slv_slave $end
$var wire 1 t slv_myslot $end
$var wire 1 u slv_ackcy $end
$var wire 1 v mst_owner $end
$var wire 1 w mst_locked $end
$var wire 1 x mst_dtacy $end
$var wire 1 y mst_busy $end
$var wire 32 z mst_busb [31:0] $end
$var wire 1 { mst_arbdn $end
$var wire 1 | mst_arbcy $end
$var wire 1 } mst_adrcy $end
$var wire 1 A mem_myexp $end
$var wire 1 ~ drv_tmoen $end
$var wire 1 !" drv_mstdn $end
$var wire 32 "" busb [31:0] $end
$var wire 1 #" arb_grant $end
$var wire 32 $" address [31:0] $end
$var wire 1 %" a1ln $end
$var wire 1 &" a0ln $end
$var reg 32 '" nub_adi [31:0] $end
$scope module UArbiter $end
$var wire 1 (" arb0 $end
$var wire 1 )" arb0oen $end
$var wire 1 *" arb1 $end
$var wire 1 +" arb1oen $end
$var wire 1 ," arb2 $end
$var wire 1 -" arb2oen $end
$var wire 1 ." arb3 $end
$var wire 4 /" arbn [3:0] $end
$var wire 1 0" grant_no $end
$var wire 1 #" grant_o $end
$var wire 4 1" idn [3:0] $end
$var wire 4 2" nub_arbn [3:0] $end
$var wire 4 3" nub_idn [3:0] $end
$var wire 1 | arbcy $end
$upscope $end
$scope module UMaster $end
$var wire 1 4" ack $end
$var wire 1 } adrcy_o $end
$var wire 1 #" arb_grant $end
$var wire 1 | arbcy_o $end
$var wire 1 { arbdn_o $end
$var wire 1 y busy_o $end
$var wire 1 5" clkn $end
$var wire 1 " cpu_lock $end
$var wire 1 % cpu_valid $end
$var wire 1 x dtacy_o $end
$var wire 1 w locked_o $end
$var wire 1 1 nub_ackn $end
$var wire 1 4 nub_clkn $end
$var wire 1 8 nub_resetn $end
$var wire 1 9 nub_rqstn $end
$var wire 1 < nub_startn $end
$var wire 1 v owner_o $end
$var wire 1 6" reset $end
$var wire 1 7" rqst $end
$var wire 1 8" slv_master $end
$var wire 1 9" start $end
$var wire 1 e tm0n_o $end
$var wire 1 f tm1n_o $end
$var reg 1 } adrcy $end
$var reg 1 | arbcy $end
$var reg 1 :" arbdn $end
$var reg 1 ;" busy $end
$var reg 1 x dtacy $end
$var reg 1 w locked $end
$var reg 1 v owner $end
$scope begin proc_master $end
$upscope $end
$upscope $end
$scope module UNDriver $end
$var wire 1 <" ack $end
$var wire 1 =" ackcy $end
$var wire 1 >" adrcy $end
$var wire 1 ?" arbcy $end
$var wire 1 !" drv_mstdn_o $end
$var wire 1 ~ drv_tmoe_o $end
$var wire 1 @" dtacy $end
$var wire 1 A" locked $end
$var wire 1 } mst_adrcy $end
$var wire 1 | mst_arbcy $end
$var wire 1 x mst_dtacy $end
$var wire 1 w mst_locked $end
$var wire 1 v mst_owner $end
$var wire 1 e mst_tm0n $end
$var wire 1 f mst_tm1n $end
$var wire 1 B" mstdn $end
$var wire 1 1 nub_ackn_o $end
$var wire 1 9 nub_rqst_o $end
$var wire 1 l nub_rqstoe_o $end
$var wire 1 < nub_start_o $end
$var wire 1 = nub_tm0n_o $end
$var wire 1 > nub_tm1n_o $end
$var wire 1 C" owner $end
$var wire 1 D" rqstoe $end
$var wire 1 E" rqstoe_o $end
$var wire 1 F" tm0 $end
$var wire 1 G" tm0n $end
$var wire 1 H" tm1 $end
$var wire 1 I" tm1n $end
$var wire 1 J" tmoe $end
$var wire 1 u slv_ackcy $end
$var wire 1 K" nub_startn_o $end
$var wire 1 L" nub_rqstn_o $end
$upscope $end
$scope module USlave $end
$var wire 1 M" ack $end
$var wire 1 u ackcy_o $end
$var wire 1 N" clk $end
$var wire 1 - mem_ready $end
$var wire 1 . mem_valid_o $end
$var wire 1 !" mstdn $end
$var wire 1 + myslot $end
$var wire 1 t myslot_o $end
$var wire 1 1 nub_ackn $end
$var wire 1 4 nub_clkn $end
$var wire 1 8 nub_resetn $end
$var wire 1 < nub_startn $end
$var wire 1 = nub_tm0n $end
$var wire 1 > nub_tm1n $end
$var wire 1 O" reset $end
$var wire 1 P" slave $end
$var wire 1 s slave_o $end
$var wire 1 Q" start $end
$var wire 1 R" tm0n $end
$var wire 1 S" tm1n $end
$var wire 1 q tm1n_o $end
$var wire 1 r tm0n_o $end
$var reg 1 u ackcy $end
$var reg 1 T" mem_valid $end
$var reg 1 U" myslotl $end
$var reg 1 V" slaven $end
$var reg 1 r tm0nl $end
$var reg 1 q tm1nl $end
$scope begin proc_slave $end
$upscope $end
$upscope $end
$scope begin proc_ad_slave $end
$upscope $end
$upscope $end
$scope task check_word $end
$var reg 32 W" data_wr [31:0] $end
$var reg 32 X" expected [31:0] $end
$var reg 4 Y" tm [3:0] $end
$upscope $end
$scope task read_word $end
$var reg 32 Z" addr [31:0] $end
$var reg 4 [" tmad [3:0] $end
$upscope $end
$scope task write_word $end
$var reg 32 \" addr [31:0] $end
$var reg 32 ]" data [31:0] $end
$var reg 4 ^" tmad [3:0] $end
$upscope $end
$upscope $end
$enddefinitions $end
#0
$dumpvars
bx ^"
bx ]"
bx \"
bx ["
bx Z"
bx Y"
bx X"
bx W"
1V"
0U"
0T"
1S"
1R"
0Q"
0P"
1O"
1N"
0M"
zL"
zK"
0J"
0I"
0H"
0G"
0F"
0E"
0D"
0C"
0B"
0A"
0@"
0?"
0>"
0="
0<"
0;"
0:"
09"
18"
07"
16"
15"
04"
b1111 3"
b1111 2"
b1111 1"
00"
b1111 /"
0."
0-"
0,"
0+"
0*"
0)"
0("
b0 '"
1&"
1%"
b0 $"
0#"
b0 ""
0!"
0~
0}
0|
0{
b0 z
0y
0x
0w
0v
0u
0t
0s
1r
1q
0p
zo
b11111111111111111111111111111111 n
1m
zl
b1111 k
b0 j
0i
b1111 h
b11111111111111111111111111111111 g
0f
0e
b0 d
b0 c
b11111111111111111111111111111111 b
b0 a
0`
b1111 _
b0 ^
b11111111111111111111111111111111 ]
b11111111111111111111111111111111 \
0[
b10000000000000000 Z
0Y
0X
0W
b0 V
b1 U
1T
b0 S
b0 R
1Q
b11111111111111111111111111111111 P
0O
b0 N
bx M
bx L
b0 K
b0 J
0I
0H
b0 G
b0 F
1E
b0 D
xC
b0 B
1A
0@
0?
1>
1=
1<
1;
1:
19
08
17
16
b1111 5
14
b1111 3
b11111111111111111111111111111111 2
11
b0 0
b0 /
0.
1-
b11111111111111111111111111111111 ,
0+
1*
b0 )
b11 (
b1111 '
b0 &
0%
1$
b11111111111111111111111111111111 #
1"
b11111111111111111111111111111111 !
$end
#75000
b10000000000000000 Z
1O
1i
05"
0N"
04
0E
#100000
0Q
0m
06"
0O"
18
1H
0O
0i
15"
1N"
14
1E
#175000
1O
1i
05"
0N"
04
0E
#200000
b11110000000000000000000000000000 /
b11110000000000000000000000000000 R
b11110000000000000000000000000000 c
0S"
b1111111111111111111111111111 2
b1111111111111111111111111111 g
19"
1Q"
1=
0>
1?
0<
b1 (
b11110000000000000000000000000000 B
1I
b10 K
b11110000000000000000000000000000 D
b10000111011001010100001100100001 G
0O
0i
b10000111011001010100001100100001 ]"
b11110000000000000000000000000000 \"
b1000 ^"
15"
1N"
14
1E
#275000
1+
0A
b11110000000000000000000000000000 )
b11110000000000000000000000000000 N
b11110000000000000000000000000000 a
b11110000000000000000000000000000 $"
b11110000000000000000000000000000 '"
1O
1i
05"
0N"
04
0E
#300000
1@
b1111 0
b1111 S
b1111 d
0R"
b10000111011001010100001100100001 /
b10000111011001010100001100100001 R
b10000111011001010100001100100001 c
14"
1M"
b1111000100110101011110011011110 2
b1111000100110101011110011011110 g
b11111111111111111111111111111111 n
b11111111111111111111111111111111 ,
b11111111111111111111111111111111 P
b11111111111111111111111111111111 b
01
1H"
1F"
b11111111111111111111111111111111 ""
09"
0Q"
1p
1~
1J"
1<"
1P"
1s
0=
0S"
0>
b10000111011001010100001100100001 B
1<
1y
1;"
b11 U
1.
1T"
1t
1U"
0q
1="
1u
0V"
1C
0I
0O
0i
15"
1N"
14
1E
#375000
b111 U
1W
b11 J
0C
1O
1i
05"
0N"
04
0E
#400000
0@
b0 0
b0 S
b0 d
b11110000000000000000000000000000 /
b11110000000000000000000000000000 R
b11110000000000000000000000000000 c
04"
0M"
b1111111111111111111111111111 2
b1111111111111111111111111111 g
1S"
1>
11
0H"
0F"
b0 ""
19"
1Q"
0p
0~
0J"
0<"
0P"
0s
1R"
1=
b11110000000000000000000000000000 B
0<
b11 (
0y
0;"
b101 U
0.
0T"
0t
0U"
0="
0u
1V"
b0 J
1I
b0 K
0O
0i
b11110000000000000000000000000000 Z"
b0 ["
15"
1N"
14
1E
#475000
b1 U
0W
1O
1i
05"
0N"
04
0E
#500000
0S"
0R"
1`
14"
1M"
b10000111011001010100001100100001 /
b10000111011001010100001100100001 R
b10000111011001010100001100100001 c
b10000111011001010100001100100001 n
b10000111011001010100001100100001 ,
b10000111011001010100001100100001 P
b10000111011001010100001100100001 b
01
1H"
1F"
b10000111011001010100001100100001 ""
b1111000100110101011110011011110 2
b1111000100110101011110011011110 g
09"
0Q"
1~
1J"
1<"
1P"
1s
0=
0>
b10000111011001010100001100100001 B
0?
1<
1y
1;"
b11 U
1.
1T"
1t
1U"
1q
1="
1u
0V"
1C
0I
0O
0i
15"
1N"
14
1E
#575000
b111 U
1W
b11 J
0C
b10000111011001010100001100100001 F
1O
1i
05"
0N"
04
0E
#600000
0`
b11110000000000000000000000000101 /
b11110000000000000000000000000101 R
b11110000000000000000000000000101 c
04"
0M"
b1111111111111111111111111010 2
b1111111111111111111111111010 g
b11111111111111111111111111111111 n
b11111111111111111111111111111111 ,
b11111111111111111111111111111111 P
b11111111111111111111111111111111 b
11
0H"
0F"
b0 ""
19"
1Q"
0~
0J"
0<"
0P"
0s
1R"
1=
0S"
0>
b11110000000000000000000000000101 B
1?
0<
b1 (
0y
0;"
b101 U
0.
0T"
0t
0U"
0="
0u
1V"
b0 J
1I
b10 K
b11110000000000000000000000000101 D
0O
0i
b11110000000000000000000000000100 \"
b1001 ^"
b10000111011001010100001100100001 X"
b11111111111111111111111111111111 L
b0 M
b10000111011001010100001100100001 W"
b0 Y"
15"
1N"
14
1E
#675000
0&"
b100 V
b1 U
0W
b11110000000000000000000000000101 )
b11110000000000000000000000000101 N
b11110000000000000000000000000101 a
b11110000000000000000000000000101 $"
b11110000000000000000000000000101 '"
1O
1i
05"
0N"
04
0E
#700000
1@
b11 0
b11 S
b11 d
0R"
b10000111011001010100001100100001 /
b10000111011001010100001100100001 R
b10000111011001010100001100100001 c
14"
1M"
b1111000100110101011110011011110 2
b1111000100110101011110011011110 g
b1111111111111111 n
b1111111111111111 ,
b1111111111111111 P
b1111111111111111 b
01
1H"
1F"
b1111111111111111 ""
09"
0Q"
1p
1~
1J"
1<"
1P"
1s
0=
0S"
0>
b10000111011001010100001100100001 B
1<
1y
1;"
b11 U
1.
1T"
1t
1U"
0q
1="
1u
0V"
1C
0I
0O
0i
15"
1N"
14
1E
#775000
b111 U
1W
b11 J
0C
1O
1i
05"
0N"
04
0E
#800000
0@
b0 0
b0 S
b0 d
b11110000000000000000000000000101 /
b11110000000000000000000000000101 R
b11110000000000000000000000000101 c
04"
0M"
b1111111111111111111111111010 2
b1111111111111111111111111010 g
1S"
1>
b11111111111111111111111111111111 n
b11111111111111111111111111111111 ,
b11111111111111111111111111111111 P
b11111111111111111111111111111111 b
11
0H"
0F"
b0 ""
19"
1Q"
0p
0~
0J"
0<"
0P"
0s
1R"
1=
b11110000000000000000000000000101 B
0<
b11 (
0y
0;"
b101 U
0.
0T"
0t
0U"
0="
0u
1V"
b0 J
1I
b0 K
0O
0i
b11110000000000000000000000000100 Z"
b1 ["
15"
1N"
14
1E
#875000
b1 U
0W
1O
1i
05"
0N"
04
0E
#900000
0S"
0R"
1`
14"
1M"
b100001100100001 /
b100001100100001 R
b100001100100001 c
b100001100100001 n
b100001100100001 ,
b100001100100001 P
b100001100100001 b
01
1H"
1F"
b100001100100001 ""
b11111111111111111011110011011110 2
b11111111111111111011110011011110 g
09"
0Q"
1~
1J"
1<"
1P"
1s
0=
0>
b10000111011001010100001100100001 B
0?
1<
1y
1;"
b11 U
1.
1T"
1t
1U"
1q
1="
1u
0V"
1C
0I
0O
0i
15"
1N"
14
1E
#975000
b111 U
1W
b11 J
0C
b100001100100001 F
1O
1i
05"
0N"
04
0E
#1000000
0`
04"
0M"
b11110000000000000000000000001011 /
b11110000000000000000000000001011 R
b11110000000000000000000000001011 c
b11111111111111111111111111111111 n
b11111111111111111111111111111111 ,
b11111111111111111111111111111111 P
b11111111111111111111111111111111 b
11
0H"
0F"
b0 ""
b1111111111111111111111110100 2
b1111111111111111111111110100 g
19"
1Q"
0~
0J"
0<"
0P"
0s
1R"
1=
0S"
0>
b11110000000000000000000000001011 B
1?
0<
b1 (
0y
0;"
b101 U
0.
0T"
0t
0U"
0="
0u
1V"
b0 J
1I
b10 K
b11110000000000000000000000001011 D
0O
0i
b11110000000000000000000000001000 \"
b1011 ^"
b100001100100001 X"
b1111111111111111 L
b1 M
b1 Y"
15"
1N"
14
1E
#1075000
0%"
b1000 V
b1 U
0W
b11110000000000000000000000001011 )
b11110000000000000000000000001011 N
b11110000000000000000000000001011 a
b11110000000000000000000000001011 $"
b11110000000000000000000000001011 '"
1O
1i
05"
0N"
04
0E
#1100000
1@
b1100 0
b1100 S
b1100 d
0R"
b10000111011001010100001100100001 /
b10000111011001010100001100100001 R
b10000111011001010100001100100001 c
14"
1M"
b1111000100110101011110011011110 2
b1111000100110101011110011011110 g
b11111111111111110000000000000000 n
b11111111111111110000000000000000 ,
b11111111111111110000000000000000 P
b11111111111111110000000000000000 b
01
1H"
1F"
b11111111111111110000000000000000 ""
09"
0Q"
1p
1~
1J"
1<"
1P"
1s
0=
0S"
0>
b10000111011001010100001100100001 B
1<
1y
1;"
b11 U
1.
1T"
1t
1U"
0q
1="
1u
0V"
1C
0I
0O
0i
15"
1N"
14
1E
#1175000
b111 U
1W
b11 J
0C
1O
1i
05"
0N"
04
0E
#1200000
0@
b0 0
b0 S
b0 d
b11110000000000000000000000001011 /
b11110000000000000000000000001011 R
b11110000000000000000000000001011 c
04"
0M"
b1111111111111111111111110100 2
b1111111111111111111111110100 g
1S"
1>
b11111111111111111111111111111111 n
b11111111111111111111111111111111 ,
b11111111111111111111111111111111 P
b11111111111111111111111111111111 b
11
0H"
0F"
b0 ""
19"
1Q"
0p
0~
0J"
0<"
0P"
0s
1R"
1=
b11110000000000000000000000001011 B
0<
b11 (
0y
0;"
b101 U
0.
0T"
0t
0U"
0="
0u
1V"
b0 J
1I
b0 K
0O
0i
b11110000000000000000000000001000 Z"
b11 ["
15"
1N"
14
1E
#1275000
b1 U
0W
1O
1i
05"
0N"
04
0E
#1300000
0S"
0R"
1`
14"
1M"
b10000111011001010000000000000000 /
b10000111011001010000000000000000 R
b10000111011001010000000000000000 c
b10000111011001010000000000000000 n
b10000111011001010000000000000000 ,
b10000111011001010000000000000000 P
b10000111011001010000000000000000 b
01
1H"
1F"
b10000111011001010000000000000000 ""
b1111000100110101111111111111111 2
b1111000100110101111111111111111 g
09"
0Q"
1~
1J"
1<"
1P"
1s
0=
0>
b10000111011001010100001100100001 B
0?
1<
1y
1;"
b11 U
1.
1T"
1t
1U"
1q
1="
1u
0V"
1C
0I
0O
0i
15"
1N"
14
1E
#1375000
b111 U
1W
b11 J
0C
b10000111011001010000000000000000 F
1O
1i
05"
0N"
04
0E
#1400000
0`
04"
0M"
b11110000000000000000000000001100 /
b11110000000000000000000000001100 R
b11110000000000000000000000001100 c
b11111111111111111111111111111111 n
b11111111111111111111111111111111 ,
b11111111111111111111111111111111 P
b11111111111111111111111111111111 b
11
0H"
0F"
b0 ""
b1111111111111111111111110011 2
b1111111111111111111111110011 g
19"
1Q"
0~
0J"
0<"
0P"
0s
0R"
0=
0S"
0>
b11110000000000000000000000001100 B
1?
0<
b0 (
0y
0;"
b101 U
0.
0T"
0t
0U"
0="
0u
1V"
b0 J
1I
b11 K
b11110000000000000000000000001100 D
0O
0i
b11110000000000000000000000001100 \"
b1100 ^"
b10000111011001010000000000000000 X"
b11111111111111110000000000000000 L
b11 M
b11 Y"
15"
1N"
14
1E
#1475000
1%"
1&"
b1100 V
b1 U
0W
b11110000000000000000000000001100 )
b11110000000000000000000000001100 N
b11110000000000000000000000001100 a
b11110000000000000000000000001100 $"
b11110000000000000000000000001100 '"
1O
1i
05"
0N"
04
0E
#1500000
1@
b1 0
b1 S
b1 d
b10000111011001010100001100100001 /
b10000111011001010100001100100001 R
b10000111011001010100001100100001 c
14"
1M"
b1111000100110101011110011011110 2
b1111000100110101011110011011110 g
b11111111 n
b11111111 ,
b11111111 P
b11111111 b
01
1H"
1F"
b11111111 ""
09"
0Q"
1p
1~
1J"
1<"
1P"
1s
0R"
0=
0S"
0>
b10000111011001010100001100100001 B
1<
1y
1;"
b11 U
1.
1T"
1t
1U"
0r
0q
1="
1u
0V"
1C
0I
0O
0i
15"
1N"
14
1E
#1575000
b111 U
1W
b11 J
0C
1O
1i
05"
0N"
04
0E
#1600000
0@
b0 0
b0 S
b0 d
b11110000000000000000000000001100 /
b11110000000000000000000000001100 R
b11110000000000000000000000001100 c
04"
0M"
b1111111111111111111111110011 2
b1111111111111111111111110011 g
1S"
1>
b11111111111111111111111111111111 n
b11111111111111111111111111111111 ,
b11111111111111111111111111111111 P
b11111111111111111111111111111111 b
11
0H"
0F"
b0 ""
19"
1Q"
0p
0~
0J"
0<"
0P"
0s
b11110000000000000000000000001100 B
0<
b10 (
0y
0;"
b101 U
0.
0T"
0t
0U"
0="
0u
1V"
b0 J
1I
b1 K
0O
0i
b11110000000000000000000000001100 Z"
b100 ["
15"
1N"
14
1E
#1675000
b1 U
0W
1O
1i
05"
0N"
04
0E
#1700000
0S"
1`
14"
1M"
b100001 /
b100001 R
b100001 c
b100001 n
b100001 ,
b100001 P
b100001 b
01
1H"
1F"
b100001 ""
b11111111111111111111111111011110 2
b11111111111111111111111111011110 g
09"
0Q"
1~
1J"
1<"
1P"
1s
0R"
0=
0>
b10000111011001010100001100100001 B
0?
1<
1y
1;"
b11 U
1.
1T"
1t
1U"
1q
1="
1u
0V"
1C
0I
0O
0i
15"
1N"
14
1E
#1775000
b111 U
1W
b11 J
0C
b100001 F
1O
1i
05"
0N"
04
0E
#1800000
0`
04"
0M"
b11110000000000000000000000010001 /
b11110000000000000000000000010001 R
b11110000000000000000000000010001 c
b11111111111111111111111111111111 n
b11111111111111111111111111111111 ,
b11111111111111111111111111111111 P
b11111111111111111111111111111111 b
11
0H"
0F"
b0 ""
b1111111111111111111111101110 2
b1111111111111111111111101110 g
19"
1Q"
0~
0J"
0<"
0P"
0s
0S"
0>
b11110000000000000000000000010001 B
1?
0<
b0 (
0y
0;"
b101 U
0.
0T"
0t
0U"
0="
0u
1V"
b0 J
1I
b11 K
b11110000000000000000000000010001 D
0O
0i
b11110000000000000000000000010000 \"
b1101 ^"
b100001 X"
b11111111 L
b100 M
b100 Y"
15"
1N"
14
1E
#1875000
0&"
b10000 V
b1 U
0W
b11110000000000000000000000010001 )
b11110000000000000000000000010001 N
b11110000000000000000000000010001 a
b11110000000000000000000000010001 $"
b11110000000000000000000000010001 '"
1O
1i
05"
0N"
04
0E
#1900000
1@
b10 0
b10 S
b10 d
b10000111011001010100001100100001 /
b10000111011001010100001100100001 R
b10000111011001010100001100100001 c
14"
1M"
b1111000100110101011110011011110 2
b1111000100110101011110011011110 g
b1111111100000000 n
b1111111100000000 ,
b1111111100000000 P
b1111111100000000 b
01
1H"
1F"
b1111111100000000 ""
09"
0Q"
1p
1~
1J"
1<"
1P"
1s
0R"
0=
0S"
0>
b10000111011001010100001100100001 B
1<
1y
1;"
b11 U
1.
1T"
1t
1U"
0q
1="
1u
0V"
1C
0I
0O
0i
15"
1N"
14
1E
#1975000
b111 U
1W
b11 J
0C
1O
1i
05"
0N"
04
0E
#2000000
0@
b0 0
b0 S
b0 d
b11110000000000000000000000010001 /
b11110000000000000000000000010001 R
b11110000000000000000000000010001 c
04"
0M"
b1111111111111111111111101110 2
b1111111111111111111111101110 g
1S"
1>
b11111111111111111111111111111111 n
b11111111111111111111111111111111 ,
b11111111111111111111111111111111 P
b11111111111111111111111111111111 b
11
0H"
0F"
b0 ""
19"
1Q"
0p
0~
0J"
0<"
0P"
0s
b11110000000000000000000000010001 B
0<
b10 (
0y
0;"
b101 U
0.
0T"
0t
0U"
0="
0u
1V"
b0 J
1I
b1 K
0O
0i
b11110000000000000000000000010000 Z"
b101 ["
15"
1N"
14
1E
#2075000
b1 U
0W
1O
1i
05"
0N"
04
0E
#2100000
0S"
1`
14"
1M"
b100001100000000 /
b100001100000000 R
b100001100000000 c
b100001100000000 n
b100001100000000 ,
b100001100000000 P
b100001100000000 b
01
1H"
1F"
b100001100000000 ""
b11111111111111111011110011111111 2
b11111111111111111011110011111111 g
09"
0Q"
1~
1J"
1<"
1P"
1s
0R"
0=
0>
b10000111011001010100001100100001 B
0?
1<
1y
1;"
b11 U
1.
1T"
1t
1U"
1q
1="
1u
0V"
1C
0I
0O
0i
15"
1N"
14
1E
#2175000
b111 U
1W
b11 J
0C
b100001100000000 F
1O
1i
05"
0N"
04
0E
#2200000
0`
04"
0M"
b11110000000000000000000000010110 /
b11110000000000000000000000010110 R
b11110000000000000000000000010110 c
b11111111111111111111111111111111 n
b11111111111111111111111111111111 ,
b11111111111111111111111111111111 P
b11111111111111111111111111111111 b
11
0H"
0F"
b0 ""
b1111111111111111111111101001 2
b1111111111111111111111101001 g
19"
1Q"
0~
0J"
0<"
0P"
0s
0S"
0>
b11110000000000000000000000010110 B
1?
0<
b0 (
0y
0;"
b101 U
0.
0T"
0t
0U"
0="
0u
1V"
b0 J
1I
b11 K
b11110000000000000000000000010110 D
0O
0i
b11110000000000000000000000010100 \"
b1110 ^"
b100001100000000 X"
b1111111100000000 L
b101 M
b101 Y"
15"
1N"
14
1E
#2275000
0%"
1&"
b10100 V
b1 U
0W
b11110000000000000000000000010110 )
b11110000000000000000000000010110 N
b11110000000000000000000000010110 a
b11110000000000000000000000010110 $"
b11110000000000000000000000010110 '"
1O
1i
05"
0N"
04
0E
#2300000
1@
b100 0
b100 S
b100 d
b10000111011001010100001100100001 /
b10000111011001010100001100100001 R
b10000111011001010100001100100001 c
14"
1M"
b1111000100110101011110011011110 2
b1111000100110101011110011011110 g
b111111110000000000000000 n
b111111110000000000000000 ,
b111111110000000000000000 P
b111111110000000000000000 b
01
1H"
1F"
b111111110000000000000000 ""
09"
0Q"
1p
1~
1J"
1<"
1P"
1s
0R"
0=
0S"
0>
b10000111011001010100001100100001 B
1<
1y
1;"
b11 U
1.
1T"
1t
1U"
0q
1="
1u
0V"
1C
0I
0O
0i
15"
1N"
14
1E
#2375000
b111 U
1W
b11 J
0C
1O
1i
05"
0N"
04
0E
#2400000
0@
b0 0
b0 S
b0 d
b11110000000000000000000000010110 /
b11110000000000000000000000010110 R
b11110000000000000000000000010110 c
04"
0M"
b1111111111111111111111101001 2
b1111111111111111111111101001 g
1S"
1>
b11111111111111111111111111111111 n
b11111111111111111111111111111111 ,
b11111111111111111111111111111111 P
b11111111111111111111111111111111 b
11
0H"
0F"
b0 ""
19"
1Q"
0p
0~
0J"
0<"
0P"
0s
b11110000000000000000000000010110 B
0<
b10 (
0y
0;"
b101 U
0.
0T"
0t
0U"
0="
0u
1V"
b0 J
1I
b1 K
0O
0i
b11110000000000000000000000010100 Z"
b110 ["
15"
1N"
14
1E
#2475000
b1 U
0W
1O
1i
05"
0N"
04
0E
#2500000
0S"
1`
14"
1M"
b11001010000000000000000 /
b11001010000000000000000 R
b11001010000000000000000 c
b11001010000000000000000 n
b11001010000000000000000 ,
b11001010000000000000000 P
b11001010000000000000000 b
01
1H"
1F"
b11001010000000000000000 ""
b11111111100110101111111111111111 2
b11111111100110101111111111111111 g
09"
0Q"
1~
1J"
1<"
1P"
1s
0R"
0=
0>
b10000111011001010100001100100001 B
0?
1<
1y
1;"
b11 U
1.
1T"
1t
1U"
1q
1="
1u
0V"
1C
0I
0O
0i
15"
1N"
14
1E
#2575000
b111 U
1W
b11 J
0C
b11001010000000000000000 F
1O
1i
05"
0N"
04
0E
#2600000
0`
04"
0M"
b11110000000000000000000000011011 /
b11110000000000000000000000011011 R
b11110000000000000000000000011011 c
b11111111111111111111111111111111 n
b11111111111111111111111111111111 ,
b11111111111111111111111111111111 P
b11111111111111111111111111111111 b
11
0H"
0F"
b0 ""
b1111111111111111111111100100 2
b1111111111111111111111100100 g
19"
1Q"
0~
0J"
0<"
0P"
0s
0S"
0>
b11110000000000000000000000011011 B
1?
0<
b0 (
0y
0;"
b101 U
0.
0T"
0t
0U"
0="
0u
1V"
b0 J
1I
b11 K
b11110000000000000000000000011011 D
0O
0i
b11110000000000000000000000011000 \"
b1111 ^"
b11001010000000000000000 X"
b111111110000000000000000 L
b110 M
b110 Y"
15"
1N"
14
1E
#2675000
0&"
b11000 V
b1 U
0W
b11110000000000000000000000011011 )
b11110000000000000000000000011011 N
b11110000000000000000000000011011 a
b11110000000000000000000000011011 $"
b11110000000000000000000000011011 '"
1O
1i
05"
0N"
04
0E
